(footprint "BM78SPPS5XC2" (version 20211014) (generator pcbnew)
  (layer "F.Cu")
  (tedit 5F69FEA3)
  (descr "Bluetooth Dual-mode module with integral chip antenna (http://ww1.microchip.com/downloads/en/DeviceDoc/60001380C.pdf)")
  (tags "Bluetooth BR/EDR BLE")
  (attr smd)
  (fp_text reference "REF**" (at -6.12 -12 180) (layer "F.SilkS")
    (effects (font (size 1 1) (thickness 0.15)) (justify left))
    (tstamp 0b05f089-faca-42a8-86db-80d9d6fa8837)
  )
  (fp_text value "BM78SPPS5xC2" (at -0.1 12.54 180) (layer "F.Fab")
    (effects (font (size 1 1) (thickness 0.15)))
    (tstamp 7c5465d3-5f46-492c-a4d5-d2b45796325f)
  )
  (fp_text user "KEEP OUT ZONE" (at 0 -9) (layer "Cmts.User")
    (effects (font (size 0.75 0.75) (thickness 0.15)))
    (tstamp 2f1683b3-6de4-4535-aa25-ada73a26caaa)
  )
  (fp_text user "${REFERENCE}" (at 0 0) (layer "F.Fab")
    (effects (font (size 1 1) (thickness 0.15)))
    (tstamp be1334d5-5359-4d1e-aea5-b10b7cc99711)
  )
  (fp_line (start -6.12 9.75) (end -6.12 11.12) (layer "F.SilkS") (width 0.12) (tstamp 141ff746-082e-42aa-a6f9-226b6cec44a8))
  (fp_line (start -6.12 -10.75) (end -6.5 -10.75) (layer "F.SilkS") (width 0.12) (tstamp 446508b3-eb10-4f75-b3ad-131105d7de88))
  (fp_line (start -6.12 -11.12) (end 6.12 -11.12) (layer "F.SilkS") (width 0.12) (tstamp 6a9c2b76-b3dd-4023-9bea-234e8f28440f))
  (fp_line (start 6.12 -11.12) (end 6.12 -10.75) (layer "F.SilkS") (width 0.12) (tstamp 7d1ff7ce-5b1b-48db-bb32-bcfadfc85249))
  (fp_line (start 6.12 11.12) (end 3.85 11.12) (layer "F.SilkS") (width 0.12) (tstamp 84a27206-e159-4ba0-89cf-70a2f3967919))
  (fp_line (start 6.12 11.12) (end 6.12 9.75) (layer "F.SilkS") (width 0.12) (tstamp a957eb87-f9b7-4a07-a067-e0b3e0affe41))
  (fp_line (start -6.12 11.12) (end -3.85 11.12) (layer "F.SilkS") (width 0.12) (tstamp badd8395-92e8-45cb-bc80-7ac4d04c353d))
  (fp_line (start -6.12 -11.12) (end -6.12 -10.75) (layer "F.SilkS") (width 0.12) (tstamp d3ac8d12-17f3-44a1-ad25-7f026d75409f))
  (fp_line (start 2 -6) (end 6 -10) (layer "Dwgs.User") (width 0.12) (tstamp 203709c5-303a-42b5-9877-bc41b020b24e))
  (fp_line (start 5 -11) (end 1 -7) (layer "Dwgs.User") (width 0.12) (tstamp 2355647d-5a69-49ae-8317-7da16ea3555a))
  (fp_line (start 2 -3.8) (end 6 -3.8) (layer "Dwgs.User") (width 0.12) (tstamp 25b5479c-ef7a-4101-9f69-95e3850da20f))
  (fp_line (start 1 -11) (end -3 -7) (layer "Dwgs.User") (width 0.12) (tstamp 28d4ca89-5bfa-4665-aed3-7bdb143c2cb7))
  (fp_line (start -2.07 -11) (end -6 -7) (layer "Dwgs.User") (width 0.12) (tstamp 57c013aa-920e-429d-b022-34e8bcf3e7f6))
  (fp_line (start 0 -11) (end -4 -7) (layer "Dwgs.User") (width 0.12) (tstamp 5dca0fac-34a4-4dd0-b183-0cc4172ec354))
  (fp_line (start 6 -11) (end -6 -11) (layer "Dwgs.User") (width 0.12) (tstamp 745f71ba-b027-458f-a5b8-7e0c5d6eea9b))
  (fp_line (start -5 -11) (end -6 -10) (layer "Dwgs.User") (width 0.12) (tstamp 7c467c04-c718-4e3c-b5e1-6896f296f499))
  (fp_line (start 2 -11) (end -2 -7) (layer "Dwgs.User") (width 0.12) (tstamp 7f86d863-204c-4ee5-81db-0b4856b798d6))
  (fp_line (start -3 -11) (end -6 -8) (layer "Dwgs.User") (width 0.12) (tstamp 897d48b9-bfde-459d-9754-8e3e6a5c2ba7))
  (fp_line (start 6 -3.8) (end 6 -11) (layer "Dwgs.User") (width 0.12) (tstamp 92a00e30-be61-41b9-b4f1-eca5d4d796b8))
  (fp_line (start 6 -11) (end 2 -7) (layer "Dwgs.User") (width 0.12) (tstamp 9b34ae30-bec1-479d-b6fe-ca2b21d2c6f8))
  (fp_line (start 3 -11) (end -1 -7) (layer "Dwgs.User") (width 0.12) (tstamp b65bb689-fe56-4171-93f7-ddd24cb3330a))
  (fp_line (start 2 -4) (end 6 -7.97) (layer "Dwgs.User") (width 0.12) (tstamp c76d60fc-81ec-49d6-b2f2-9f21083b9c0e))
  (fp_line (start 6 -9) (end 2 -5) (layer "Dwgs.User") (width 0.12) (tstamp ce1e03bc-b765-4bc0-a902-5d57baa4eb34))
  (fp_line (start -6 -11) (end -6 -6.97) (layer "Dwgs.User") (width 0.12) (tstamp d0f42a84-1d59-4baa-9a6a-ddf23ff81276))
  (fp_line (start -6 -7) (end 2 -7) (layer "Dwgs.User") (width 0.12) (tstamp d14aea04-6076-4d50-a57f-d53ceb80043f))
  (fp_line (start 6 -5) (end 4.8 -3.8) (layer "Dwgs.User") (width 0.12) (tstamp d3f62c59-c232-4013-bf62-9a3c767c274b))
  (fp_line (start 2 -7) (end 2 -3.8) (layer "Dwgs.User") (width 0.12) (tstamp ddfe6ad2-58f8-41f9-b27e-6e5dd9168722))
  (fp_line (start 3.8 -3.8) (end 6 -5.97) (layer "Dwgs.User") (width 0.12) (tstamp e6809358-5b76-457b-9232-2c6572e3fdda))
  (fp_line (start 4 -11) (end 0 -7) (layer "Dwgs.User") (width 0.12) (tstamp e8b2c967-2366-4665-9b6b-fcbdb177a8aa))
  (fp_line (start -4 -11) (end -6 -9) (layer "Dwgs.User") (width 0.12) (tstamp f11c7d3f-36f2-4782-9e9d-c1cd0b0dfd7e))
  (fp_line (start 6 -7) (end 2.8 -3.8) (layer "Dwgs.User") (width 0.12) (tstamp f4c8e2dc-e702-4ce1-bc79-fa9a252b5944))
  (fp_line (start -1 -11) (end -5 -7) (layer "Dwgs.User") (width 0.12) (tstamp f8e2a565-37d1-4026-a09a-a9c44a1e5023))
  (fp_line (start 6.75 -11.25) (end 6.75 11.75) (layer "F.CrtYd") (width 0.05) (tstamp 719dee3b-f68d-444c-a223-df38ed97af83))
  (fp_line (start -6.75 -11.25) (end 6.75 -11.25) (layer "F.CrtYd") (width 0.05) (tstamp 77f51533-f621-464d-87ef-7b05e7aa0470))
  (fp_line (start 6.75 11.75) (end -6.75 11.75) (layer "F.CrtYd") (width 0.05) (tstamp b80ec63a-096a-4612-bedd-b5b2cf68cf54))
  (fp_line (start -6.75 11.75) (end -6.75 -11.25) (layer "F.CrtYd") (width 0.05) (tstamp f18a374c-0cc9-4163-98d5-6a90c45f346d))
  (fp_line (start -5.7 -11) (end -6 -10.7) (layer "F.Fab") (width 0.1) (tstamp 0bbf455c-3177-4bd3-bdbe-553ad7105f8c))
  (fp_line (start -6 -10.7) (end -6 11) (layer "F.Fab") (width 0.1) (tstamp a706d009-b801-4d38-9f4a-a02f4bc5c983))
  (fp_line (start 6 11) (end 6 -11) (layer "F.Fab") (width 0.1) (tstamp c66428dd-a2fd-448d-b1ab-3e34014b181f))
  (fp_line (start -6 11) (end 6 11) (layer "F.Fab") (width 0.1) (tstamp db54f168-cc66-4241-bffe-d722654ef9de))
  (fp_line (start 6 -11) (end -5.7 -11) (layer "F.Fab") (width 0.1) (tstamp dd5df8a3-e1d5-4bca-8f11-0777e1e7623a))
  (pad "1" smd rect (at -5.75 -10.2 270) (size 0.7 1.5) (layers "F.Cu" "F.Paste" "F.Mask") (tstamp 542543e0-aa55-4938-8066-cfffa1c009b2))
  (pad "2" smd rect (at -5.75 -9.1 270) (size 0.7 1.5) (layers "F.Cu" "F.Paste" "F.Mask") (tstamp 58bb9ef2-a8ef-43a5-82bd-12cdf2cc681f))
  (pad "3" smd rect (at -5.75 -2.9 270) (size 0.7 1.5) (layers "F.Cu" "F.Paste" "F.Mask") (tstamp 7156f40a-ea51-4f07-b621-ab74a17e222d))
  (pad "4" smd rect (at -5.75 -1.8 270) (size 0.7 1.5) (layers "F.Cu" "F.Paste" "F.Mask") (tstamp bc94846a-7c99-4c69-a71e-05384c140c48))
  (pad "5" smd rect (at -5.75 -0.7 270) (size 0.7 1.5) (layers "F.Cu" "F.Paste" "F.Mask") (tstamp c9b52e52-87b8-4821-a97d-50e73863b6b5))
  (pad "6" smd rect (at -5.75 0.4 270) (size 0.7 1.5) (layers "F.Cu" "F.Paste" "F.Mask") (tstamp b87c06bd-eb51-42b8-9ada-92722120973d))
  (pad "7" smd rect (at -5.75 1.5 270) (size 0.7 1.5) (layers "F.Cu" "F.Paste" "F.Mask") (tstamp 39330345-3156-4c87-a659-9b22a8e31977))
  (pad "8" smd rect (at -5.75 2.6 270) (size 0.7 1.5) (layers "F.Cu" "F.Paste" "F.Mask") (tstamp 66aaa633-7486-4860-b10e-7acd78dd7302))
  (pad "9" smd rect (at -5.75 3.7 270) (size 0.7 1.5) (layers "F.Cu" "F.Paste" "F.Mask") (tstamp 8ba43311-0b57-428c-9450-5f8f2ec384b1))
  (pad "10" smd rect (at -5.75 4.8 270) (size 0.7 1.5) (layers "F.Cu" "F.Paste" "F.Mask") (tstamp 7f541940-2708-4faf-9b93-cea88bb5b904))
  (pad "11" smd rect (at -5.75 5.9 270) (size 0.7 1.5) (layers "F.Cu" "F.Paste" "F.Mask") (tstamp 3e4ea19d-2b0a-4e68-bbdf-cc018561af0c))
  (pad "12" smd rect (at -5.75 7 270) (size 0.7 1.5) (layers "F.Cu" "F.Paste" "F.Mask") (tstamp 61bd234c-33bb-475c-969a-39766e4d629e))
  (pad "13" smd rect (at -5.75 8.1 270) (size 0.7 1.5) (layers "F.Cu" "F.Paste" "F.Mask") (tstamp 28772932-4003-4ed9-a731-c536e87ff010))
  (pad "14" smd rect (at -5.75 9.2 270) (size 0.7 1.5) (layers "F.Cu" "F.Paste" "F.Mask") (tstamp 97d79544-11fd-4912-bc5c-36e0b344cbf8))
  (pad "15" smd rect (at -3.3 10.75) (size 0.7 1.5) (layers "F.Cu" "F.Paste" "F.Mask") (tstamp 987703be-3c0c-45ab-b11c-14b49f11f5da))
  (pad "16" smd rect (at -2.2 10.75) (size 0.7 1.5) (layers "F.Cu" "F.Paste" "F.Mask") (tstamp b6f180da-e27e-4ef5-9e02-d5b588aed7bd))
  (pad "17" smd rect (at -1.1 10.75) (size 0.7 1.5) (layers "F.Cu" "F.Paste" "F.Mask") (tstamp d0806c1c-1cd4-47d7-9d01-b3231f932b55))
  (pad "18" smd rect (at 0 10.75) (size 0.7 1.5) (layers "F.Cu" "F.Paste" "F.Mask") (tstamp cb8b7efb-842d-4748-9b08-1b0f3fb57767))
  (pad "19" smd rect (at 1.1 10.75) (size 0.7 1.5) (layers "F.Cu" "F.Paste" "F.Mask") (tstamp 00b3bbd3-1879-4009-af00-2e5eb0d3f1c3))
  (pad "20" smd rect (at 2.2 10.75) (size 0.7 1.5) (layers "F.Cu" "F.Paste" "F.Mask") (tstamp 37fd96d1-9e98-4985-b116-2e5509b6b1d3))
  (pad "21" smd rect (at 3.3 10.75) (size 0.7 1.5) (layers "F.Cu" "F.Paste" "F.Mask") (tstamp e2c39cc0-9db8-46b5-a625-1135cf73f0f6))
  (pad "22" smd rect (at 5.75 9.2 270) (size 0.7 1.5) (layers "F.Cu" "F.Paste" "F.Mask") (tstamp 7c84ffe6-4e95-48e0-84d9-62042404b17f))
  (pad "23" smd rect (at 5.75 8.1 270) (size 0.7 1.5) (layers "F.Cu" "F.Paste" "F.Mask") (tstamp ccd3e76f-57c2-4bef-b1df-ef63d323a4e0))
  (pad "24" smd rect (at 5.75 7 270) (size 0.7 1.5) (layers "F.Cu" "F.Paste" "F.Mask") (tstamp cd68b7ad-3289-43a0-9111-7be3c94aa020))
  (pad "25" smd rect (at 5.75 5.9 270) (size 0.7 1.5) (layers "F.Cu" "F.Paste" "F.Mask") (tstamp c806ce1d-c7cb-453d-86e4-bc07619761bd))
  (pad "26" smd rect (at 5.75 4.8 270) (size 0.7 1.5) (layers "F.Cu" "F.Paste" "F.Mask") (tstamp 9db65719-d1af-4634-a3db-07967fd48d02))
  (pad "27" smd rect (at 5.75 3.7 270) (size 0.7 1.5) (layers "F.Cu" "F.Paste" "F.Mask") (tstamp 71943f51-6552-4aed-b3be-a898eb201afa))
  (pad "28" smd rect (at 5.75 2.6 270) (size 0.7 1.5) (layers "F.Cu" "F.Paste" "F.Mask") (tstamp d1fdf548-f35c-474c-bb56-5bf63e138227))
  (pad "29" smd rect (at 5.75 1.5 270) (size 0.7 1.5) (layers "F.Cu" "F.Paste" "F.Mask") (tstamp 322190c3-8162-4213-8c7e-afa0bfb0d4f0))
  (pad "30" smd rect (at 5.75 0.4 270) (size 0.7 1.5) (layers "F.Cu" "F.Paste" "F.Mask") (tstamp a0b62c32-f588-4d6a-aa4b-05eaaf89bdf9))
  (pad "31" smd rect (at 5.75 -0.7 270) (size 0.7 1.5) (layers "F.Cu" "F.Paste" "F.Mask") (tstamp b3f6613b-6fe5-42a4-b74a-8a1e7406e25e))
  (pad "32" smd rect (at 5.75 -9.1 270) (size 0.7 1.5) (layers "F.Cu" "F.Paste" "F.Mask") (tstamp 0e27ac38-9d17-4b2b-93b8-14a8fb223523))
  (pad "33" smd rect (at 5.75 -10.2 270) (size 0.7 1.5) (layers "F.Cu" "F.Paste" "F.Mask") (tstamp 6721409b-3e96-4eb7-b5ff-8c95c193fcb9))
  (model "${KICAD6_3DMODEL_DIR}/RF_Module.3dshapes/BM78SPPS5xC2.wrl"
    (offset (xyz 0 0 0))
    (scale (xyz 1 1 1))
    (rotate (xyz 0 0 0))
  )
)
