(footprint "MountingHole_3.2mm_M3_ISO7380_Pad" (version 20211014) (generator pcbnew)
  (layer "F.Cu")
  (tedit 56D1B4CB)
  (descr "Mounting Hole 3.2mm, M3, ISO7380")
  (tags "mounting hole 3.2mm m3 iso7380")
  (attr exclude_from_pos_files exclude_from_bom)
  (fp_text reference "REF**" (at 0 -3.85) (layer "F.SilkS")
    (effects (font (size 1 1) (thickness 0.15)))
    (tstamp ba205136-1351-46d6-8f81-8dc3b8daa083)
  )
  (fp_text value "MountingHole_3.2mm_M3_ISO7380_Pad" (at 0 3.85) (layer "F.Fab")
    (effects (font (size 1 1) (thickness 0.15)))
    (tstamp 5d30cf3f-7470-49e2-80a5-e107b12ce75d)
  )
  (fp_text user "${REFERENCE}" (at 0.3 0) (layer "F.Fab")
    (effects (font (size 1 1) (thickness 0.15)))
    (tstamp 9343b1ac-c853-49f8-b42c-9b5b3cea8549)
  )
  (fp_circle (center 0 0) (end 2.85 0) (layer "Cmts.User") (width 0.15) (fill none) (tstamp b931dbf0-25f2-4828-a7b5-ca7ba98beb6e))
  (fp_circle (center 0 0) (end 3.1 0) (layer "F.CrtYd") (width 0.05) (fill none) (tstamp 65572c95-6054-45c1-aa2f-fc8fa0cde2d2))
  (pad "1" thru_hole circle (at 0 0) (size 5.7 5.7) (drill 3.2) (layers *.Cu *.Mask) (tstamp 17b7df9b-a857-4080-839c-f678c4f420d2))
)
