(footprint "MountingHole_2.2mm_M2_DIN965_Pad_TopOnly" (version 20211014) (generator pcbnew)
  (layer "F.Cu")
  (tedit 56D1B4CB)
  (descr "Mounting Hole 2.2mm, M2, DIN965")
  (tags "mounting hole 2.2mm m2 din965")
  (attr exclude_from_pos_files exclude_from_bom)
  (fp_text reference "REF**" (at 0 -2.9) (layer "F.SilkS")
    (effects (font (size 1 1) (thickness 0.15)))
    (tstamp b04b8a31-ce2d-486e-876a-6e7e2fc2ce1d)
  )
  (fp_text value "MountingHole_2.2mm_M2_DIN965_Pad_TopOnly" (at 0 2.9) (layer "F.Fab")
    (effects (font (size 1 1) (thickness 0.15)))
    (tstamp 7c9f368b-132a-48df-9ae8-20413991b5d4)
  )
  (fp_text user "${REFERENCE}" (at 0.3 0) (layer "F.Fab")
    (effects (font (size 1 1) (thickness 0.15)))
    (tstamp 00573a88-cc1e-45fd-83d5-442fcb93fb0c)
  )
  (fp_circle (center 0 0) (end 1.9 0) (layer "Cmts.User") (width 0.15) (fill none) (tstamp 71ee505a-f11f-4f8a-94b5-8724b3fac28e))
  (fp_circle (center 0 0) (end 2.15 0) (layer "F.CrtYd") (width 0.05) (fill none) (tstamp e53b809b-42d0-4edc-868c-2f21896d1276))
  (pad "1" connect circle (at 0 0) (size 3.8 3.8) (layers "F.Cu" "F.Mask") (tstamp 46e261c9-c6b9-4d6d-aa00-187a23acb7e1))
  (pad "1" thru_hole circle (at 0 0) (size 2.6 2.6) (drill 2.2) (layers *.Cu *.Mask) (tstamp 949f2f2f-e88f-4142-aed0-64c4cb342c9d))
)
