(footprint "MountingHole_2.7mm_M2.5_DIN965_Pad_TopOnly" (version 20211014) (generator pcbnew)
  (layer "F.Cu")
  (tedit 56D1B4CB)
  (descr "Mounting Hole 2.7mm, M2.5, DIN965")
  (tags "mounting hole 2.7mm m2.5 din965")
  (attr exclude_from_pos_files exclude_from_bom)
  (fp_text reference "REF**" (at 0 -3.35) (layer "F.SilkS")
    (effects (font (size 1 1) (thickness 0.15)))
    (tstamp 40e41475-f61b-4466-b24f-479dab7d6579)
  )
  (fp_text value "MountingHole_2.7mm_M2.5_DIN965_Pad_TopOnly" (at 0 3.35) (layer "F.Fab")
    (effects (font (size 1 1) (thickness 0.15)))
    (tstamp 7bd54e3d-2c42-4661-9ee2-0db0fdb6bfcc)
  )
  (fp_text user "${REFERENCE}" (at 0.3 0) (layer "F.Fab")
    (effects (font (size 1 1) (thickness 0.15)))
    (tstamp b52d3b3f-06ab-4e6f-b04d-e35e57b12856)
  )
  (fp_circle (center 0 0) (end 2.35 0) (layer "Cmts.User") (width 0.15) (fill none) (tstamp a214bb42-ff8f-4a2e-a468-9b5292114859))
  (fp_circle (center 0 0) (end 2.6 0) (layer "F.CrtYd") (width 0.05) (fill none) (tstamp ed5e6e60-8963-44d6-9ca8-e057df55fc04))
  (pad "1" connect circle (at 0 0) (size 4.7 4.7) (layers "F.Cu" "F.Mask") (tstamp 2f2a0781-1362-4620-a8f2-7b2deb8bd638))
  (pad "1" thru_hole circle (at 0 0) (size 3.1 3.1) (drill 2.7) (layers *.Cu *.Mask) (tstamp b67310f3-92ed-48be-a49d-c8b153f71c0c))
)
