(footprint "MountingHole_5.3mm_M5_Pad_TopOnly" (version 20211014) (generator pcbnew)
  (layer "F.Cu")
  (tedit 56D1B4CB)
  (descr "Mounting Hole 5.3mm, M5")
  (tags "mounting hole 5.3mm m5")
  (attr exclude_from_pos_files exclude_from_bom)
  (fp_text reference "REF**" (at 0 -6.3) (layer "F.SilkS")
    (effects (font (size 1 1) (thickness 0.15)))
    (tstamp eac7a80e-d638-4206-8d79-96c52db8055f)
  )
  (fp_text value "MountingHole_5.3mm_M5_Pad_TopOnly" (at 0 6.3) (layer "F.Fab")
    (effects (font (size 1 1) (thickness 0.15)))
    (tstamp e55d4830-0665-40da-a1e5-8ec4b986e0ee)
  )
  (fp_text user "${REFERENCE}" (at 0.3 0) (layer "F.Fab")
    (effects (font (size 1 1) (thickness 0.15)))
    (tstamp 90907b9e-0d75-4ad0-9ba4-9f9d1de5d6f7)
  )
  (fp_circle (center 0 0) (end 5.3 0) (layer "Cmts.User") (width 0.15) (fill none) (tstamp 7bb9cf1c-50ff-4681-842b-3d289c4ce09c))
  (fp_circle (center 0 0) (end 5.55 0) (layer "F.CrtYd") (width 0.05) (fill none) (tstamp 36035440-0b61-4b87-ade6-a59fea9851ae))
  (pad "1" connect circle (at 0 0) (size 10.6 10.6) (layers "F.Cu" "F.Mask") (tstamp 851bce1e-c712-455a-8598-130abd54df42))
  (pad "1" thru_hole circle (at 0 0) (size 5.7 5.7) (drill 5.3) (layers *.Cu *.Mask) (tstamp ec5d0891-c5ef-46ff-82f5-7e19c3a0c0e6))
)
