(footprint "MountingHole_6.5mm_Pad_TopBottom" (version 20211014) (generator pcbnew)
  (layer "F.Cu")
  (tedit 56D1B4CB)
  (descr "Mounting Hole 6.5mm")
  (tags "mounting hole 6.5mm")
  (attr exclude_from_pos_files exclude_from_bom)
  (fp_text reference "REF**" (at 0 -7.5) (layer "F.SilkS")
    (effects (font (size 1 1) (thickness 0.15)))
    (tstamp cd4bc1d7-746e-4890-966f-3f2b7b3d4d60)
  )
  (fp_text value "MountingHole_6.5mm_Pad_TopBottom" (at 0 7.5) (layer "F.Fab")
    (effects (font (size 1 1) (thickness 0.15)))
    (tstamp a54b449b-7300-4f87-b921-159d192a788c)
  )
  (fp_text user "${REFERENCE}" (at 0.3 0) (layer "F.Fab")
    (effects (font (size 1 1) (thickness 0.15)))
    (tstamp a3e11634-b09c-49db-8b1e-fd37b7d3a257)
  )
  (fp_circle (center 0 0) (end 6.5 0) (layer "Cmts.User") (width 0.15) (fill none) (tstamp 0f197500-4559-4509-9341-1d598b1cdad4))
  (fp_circle (center 0 0) (end 6.75 0) (layer "F.CrtYd") (width 0.05) (fill none) (tstamp 445fd3aa-a981-42b1-a700-f908b6e13aa8))
  (pad "1" connect circle (at 0 0) (size 13 13) (layers "F.Cu" "F.Mask") (tstamp 2057b4ed-4f74-4a82-871d-83d467589fff))
  (pad "1" connect circle (at 0 0) (size 13 13) (layers "B.Cu" "B.Mask") (tstamp 76a32af7-af79-4491-a28c-19de707f0606))
  (pad "1" thru_hole circle (at 0 0) (size 6.9 6.9) (drill 6.5) (layers *.Cu *.Mask) (tstamp 7876d3a7-eb09-44c5-bd78-a2ff2fda4b97))
)
