(footprint "MountingHole_3.7mm_Pad" (version 20211014) (generator pcbnew)
  (layer "F.Cu")
  (tedit 56D1B4CB)
  (descr "Mounting Hole 3.7mm")
  (tags "mounting hole 3.7mm")
  (attr exclude_from_pos_files exclude_from_bom)
  (fp_text reference "REF**" (at 0 -4.7) (layer "F.SilkS")
    (effects (font (size 1 1) (thickness 0.15)))
    (tstamp d5c53125-86c0-41c8-8cbd-002dcb23f942)
  )
  (fp_text value "MountingHole_3.7mm_Pad" (at 0 4.7) (layer "F.Fab")
    (effects (font (size 1 1) (thickness 0.15)))
    (tstamp 02c1cedf-8757-4ed3-ac90-b4242017447e)
  )
  (fp_text user "${REFERENCE}" (at 0.3 0) (layer "F.Fab")
    (effects (font (size 1 1) (thickness 0.15)))
    (tstamp 0d29d895-dcfe-4439-a4eb-7301e2b1f857)
  )
  (fp_circle (center 0 0) (end 3.7 0) (layer "Cmts.User") (width 0.15) (fill none) (tstamp 76b600cc-27d7-4b52-aa49-2d3262c605db))
  (fp_circle (center 0 0) (end 3.95 0) (layer "F.CrtYd") (width 0.05) (fill none) (tstamp 9602b875-9751-4b87-9f3a-06eb103bfd5d))
  (pad "1" thru_hole circle (at 0 0) (size 7.4 7.4) (drill 3.7) (layers *.Cu *.Mask) (tstamp ec0396e3-1926-4a45-aa18-ff1122c48abd))
)
