(footprint "MountingHole_5.3mm_M5_ISO7380_Pad" (version 20211014) (generator pcbnew)
  (layer "F.Cu")
  (tedit 56D1B4CB)
  (descr "Mounting Hole 5.3mm, M5, ISO7380")
  (tags "mounting hole 5.3mm m5 iso7380")
  (attr exclude_from_pos_files exclude_from_bom)
  (fp_text reference "REF**" (at 0 -5.75) (layer "F.SilkS")
    (effects (font (size 1 1) (thickness 0.15)))
    (tstamp fea80732-7c58-4276-a732-3336f2375ad6)
  )
  (fp_text value "MountingHole_5.3mm_M5_ISO7380_Pad" (at 0 5.75) (layer "F.Fab")
    (effects (font (size 1 1) (thickness 0.15)))
    (tstamp 9e1ef63a-6a60-4a45-a250-7cf0a0e50089)
  )
  (fp_text user "${REFERENCE}" (at 0.3 0) (layer "F.Fab")
    (effects (font (size 1 1) (thickness 0.15)))
    (tstamp a23c6189-7520-499d-8536-03acb27b8c1e)
  )
  (fp_circle (center 0 0) (end 4.75 0) (layer "Cmts.User") (width 0.15) (fill none) (tstamp d6275e51-8538-4132-8801-5b2b323aa202))
  (fp_circle (center 0 0) (end 5 0) (layer "F.CrtYd") (width 0.05) (fill none) (tstamp cf6b0ef4-ed3c-4504-9111-8532af4b9c62))
  (pad "1" thru_hole circle (at 0 0) (size 9.5 9.5) (drill 5.3) (layers *.Cu *.Mask) (tstamp 07b9fb13-6350-416b-a85d-b0a1595cb06b))
)
