(footprint "MountingHole_2.7mm_M2.5_DIN965_Pad" (version 20211014) (generator pcbnew)
  (layer "F.Cu")
  (tedit 56D1B4CB)
  (descr "Mounting Hole 2.7mm, M2.5, DIN965")
  (tags "mounting hole 2.7mm m2.5 din965")
  (attr exclude_from_pos_files exclude_from_bom)
  (fp_text reference "REF**" (at 0 -3.35) (layer "F.SilkS")
    (effects (font (size 1 1) (thickness 0.15)))
    (tstamp 3e94d29c-7f21-45dd-b26e-fb6c204f14f9)
  )
  (fp_text value "MountingHole_2.7mm_M2.5_DIN965_Pad" (at 0 3.35) (layer "F.Fab")
    (effects (font (size 1 1) (thickness 0.15)))
    (tstamp 43b9889b-de9b-4d57-9f8b-d64e56edb999)
  )
  (fp_text user "${REFERENCE}" (at 0.3 0) (layer "F.Fab")
    (effects (font (size 1 1) (thickness 0.15)))
    (tstamp 92a2db24-334b-4e5f-a7f6-62e6c4c81fa2)
  )
  (fp_circle (center 0 0) (end 2.35 0) (layer "Cmts.User") (width 0.15) (fill none) (tstamp 9e7d1567-ec58-4967-bf3c-96b87edb78e4))
  (fp_circle (center 0 0) (end 2.6 0) (layer "F.CrtYd") (width 0.05) (fill none) (tstamp 22d22fe0-c31f-4474-8651-ed99be8c495e))
  (pad "1" thru_hole circle (at 0 0) (size 4.7 4.7) (drill 2.7) (layers *.Cu *.Mask) (tstamp 7ff21f1f-8e6e-4574-8fd4-d28a82947f78))
)
