(footprint "MountingHole_2.7mm_M2.5_ISO14580_Pad_TopBottom" (version 20211014) (generator pcbnew)
  (layer "F.Cu")
  (tedit 56D1B4CB)
  (descr "Mounting Hole 2.7mm, M2.5, ISO14580")
  (tags "mounting hole 2.7mm m2.5 iso14580")
  (attr exclude_from_pos_files exclude_from_bom)
  (fp_text reference "REF**" (at 0 -3.25) (layer "F.SilkS")
    (effects (font (size 1 1) (thickness 0.15)))
    (tstamp 2739d2a2-cafe-43f5-8207-acfdbf65bbaa)
  )
  (fp_text value "MountingHole_2.7mm_M2.5_ISO14580_Pad_TopBottom" (at 0 3.25) (layer "F.Fab")
    (effects (font (size 1 1) (thickness 0.15)))
    (tstamp 8863f5a0-630e-4505-a2a0-180d480d194e)
  )
  (fp_text user "${REFERENCE}" (at 0.3 0) (layer "F.Fab")
    (effects (font (size 1 1) (thickness 0.15)))
    (tstamp 94437037-a8f2-4e17-9d70-36d63a5d41ed)
  )
  (fp_circle (center 0 0) (end 2.25 0) (layer "Cmts.User") (width 0.15) (fill none) (tstamp d3ea5af1-5b94-4ec8-9e4b-99afaebf9f7d))
  (fp_circle (center 0 0) (end 2.5 0) (layer "F.CrtYd") (width 0.05) (fill none) (tstamp 846ad373-8aea-4134-ade1-d226d8b74551))
  (pad "1" connect circle (at 0 0) (size 4.5 4.5) (layers "B.Cu" "B.Mask") (tstamp 2f4c84c5-ccca-4654-a19f-3f12a1911dd1))
  (pad "1" connect circle (at 0 0) (size 4.5 4.5) (layers "F.Cu" "F.Mask") (tstamp 6a798434-198a-44d1-ae85-2e7ddb71efd9))
  (pad "1" thru_hole circle (at 0 0) (size 3.1 3.1) (drill 2.7) (layers *.Cu *.Mask) (tstamp c9616f7b-479e-420d-aa8a-a348b61c536e))
)
