(footprint "MountingHole_4mm_Pad_Via" (version 20211014) (generator pcbnew)
  (layer "F.Cu")
  (tedit 56DDC1BA)
  (descr "Mounting Hole 4mm")
  (tags "mounting hole 4mm")
  (attr exclude_from_pos_files exclude_from_bom)
  (fp_text reference "REF**" (at 0 -5) (layer "F.SilkS")
    (effects (font (size 1 1) (thickness 0.15)))
    (tstamp fb4f2a29-b78f-45e0-9d3d-90d83e106f61)
  )
  (fp_text value "MountingHole_4mm_Pad_Via" (at 0 5) (layer "F.Fab")
    (effects (font (size 1 1) (thickness 0.15)))
    (tstamp 09e0464a-3052-4829-ba77-0625bb66d0fd)
  )
  (fp_text user "${REFERENCE}" (at 0.3 0) (layer "F.Fab")
    (effects (font (size 1 1) (thickness 0.15)))
    (tstamp 7dada9ee-9a41-41c3-a617-817e3df5f110)
  )
  (fp_circle (center 0 0) (end 4 0) (layer "Cmts.User") (width 0.15) (fill none) (tstamp 12c6a19e-1ff0-41ea-ab7d-53de4f9b0f7a))
  (fp_circle (center 0 0) (end 4.25 0) (layer "F.CrtYd") (width 0.05) (fill none) (tstamp 59c3aae0-bebd-4ac4-8adc-516d1fcacc5a))
  (pad "1" thru_hole circle (at -3 0) (size 0.9 0.9) (drill 0.6) (layers *.Cu *.Mask) (tstamp 1ba0a06a-2bed-4236-954d-f75a281f2900))
  (pad "1" thru_hole circle (at 2.12132 -2.12132) (size 0.9 0.9) (drill 0.6) (layers *.Cu *.Mask) (tstamp 22c369a7-0b80-45f9-9711-4d4677bdb4af))
  (pad "1" thru_hole circle (at 0 3) (size 0.9 0.9) (drill 0.6) (layers *.Cu *.Mask) (tstamp 2d75a9ff-8841-4796-ba41-b480d6c8f9d6))
  (pad "1" thru_hole circle (at 2.12132 2.12132) (size 0.9 0.9) (drill 0.6) (layers *.Cu *.Mask) (tstamp 64ece723-b19b-4649-9ff4-7cc107d84341))
  (pad "1" thru_hole circle (at -2.12132 2.12132) (size 0.9 0.9) (drill 0.6) (layers *.Cu *.Mask) (tstamp 6f05c7e5-1e27-405a-a2c0-b9377029f2af))
  (pad "1" thru_hole circle (at -2.12132 -2.12132) (size 0.9 0.9) (drill 0.6) (layers *.Cu *.Mask) (tstamp b43c41bd-1ca8-4ae3-91f0-4890d7fc603b))
  (pad "1" thru_hole circle (at 0 -3) (size 0.9 0.9) (drill 0.6) (layers *.Cu *.Mask) (tstamp b998c2dc-67a4-424d-975a-b6c1353d399d))
  (pad "1" thru_hole circle (at 0 0) (size 8 8) (drill 4) (layers *.Cu *.Mask) (tstamp e1617406-e4fd-48a9-9da1-2c52c51337aa))
  (pad "1" thru_hole circle (at 3 0) (size 0.9 0.9) (drill 0.6) (layers *.Cu *.Mask) (tstamp fabeccc8-da0e-42cf-abcd-4474bef1664b))
)
