(footprint "MountingHole_6.4mm_M6_DIN965_Pad_TopBottom" (version 20211014) (generator pcbnew)
  (layer "F.Cu")
  (tedit 56D1B4CB)
  (descr "Mounting Hole 6.4mm, M6, DIN965")
  (tags "mounting hole 6.4mm m6 din965")
  (attr exclude_from_pos_files exclude_from_bom)
  (fp_text reference "REF**" (at 0 -6.5) (layer "F.SilkS")
    (effects (font (size 1 1) (thickness 0.15)))
    (tstamp 6ebfa94b-af2e-488c-bcba-6768b8c2ca79)
  )
  (fp_text value "MountingHole_6.4mm_M6_DIN965_Pad_TopBottom" (at 0 6.5) (layer "F.Fab")
    (effects (font (size 1 1) (thickness 0.15)))
    (tstamp fa37bd2c-da84-4a6a-892b-617079426454)
  )
  (fp_text user "${REFERENCE}" (at 0.3 0) (layer "F.Fab")
    (effects (font (size 1 1) (thickness 0.15)))
    (tstamp 1690d81c-f1f5-46e1-b6b9-22fd560103ae)
  )
  (fp_circle (center 0 0) (end 5.5 0) (layer "Cmts.User") (width 0.15) (fill none) (tstamp 7d2969ce-e756-48c3-b4db-b5bdc5f4d671))
  (fp_circle (center 0 0) (end 5.75 0) (layer "F.CrtYd") (width 0.05) (fill none) (tstamp 77de1d6b-16c3-4fb5-9238-2bc280cf718a))
  (pad "" connect circle (at 0 0) (size 11 11) (layers "B.Mask" "Rescue") (tstamp 3542b51a-11fc-483b-bf8c-82ce9294ac74))
  (pad "1" connect circle (at 0 0) (size 11 11) (layers "F.Cu" "F.Mask") (tstamp 284fdeb7-a9c8-4b25-afdc-67f6e7998af3))
  (pad "1" thru_hole circle (at 0 0) (size 6.8 6.8) (drill 6.4) (layers *.Cu *.Mask) (tstamp e0310fb2-e8f1-4b76-9cc3-daf9b5d5bd2d))
)
