(footprint "MountingHole_4.3mm_M4_DIN965_Pad" (version 20211014) (generator pcbnew)
  (layer "F.Cu")
  (tedit 56D1B4CB)
  (descr "Mounting Hole 4.3mm, M4, DIN965")
  (tags "mounting hole 4.3mm m4 din965")
  (attr exclude_from_pos_files exclude_from_bom)
  (fp_text reference "REF**" (at 0 -4.75) (layer "F.SilkS")
    (effects (font (size 1 1) (thickness 0.15)))
    (tstamp ad70758d-8ef1-4296-80f8-02d2b7a53342)
  )
  (fp_text value "MountingHole_4.3mm_M4_DIN965_Pad" (at 0 4.75) (layer "F.Fab")
    (effects (font (size 1 1) (thickness 0.15)))
    (tstamp ce4fcbd3-d1df-4a08-a39d-501eb4fe9c9f)
  )
  (fp_text user "${REFERENCE}" (at 0.3 0) (layer "F.Fab")
    (effects (font (size 1 1) (thickness 0.15)))
    (tstamp 02a3a233-edac-43df-a0cb-c1dd7cab69d5)
  )
  (fp_circle (center 0 0) (end 3.75 0) (layer "Cmts.User") (width 0.15) (fill none) (tstamp 51edeb43-5b03-4041-9fa4-eec7883d1e94))
  (fp_circle (center 0 0) (end 4 0) (layer "F.CrtYd") (width 0.05) (fill none) (tstamp fbd99f90-839f-46af-8421-a8f9a0d5c755))
  (pad "1" thru_hole circle (at 0 0) (size 7.5 7.5) (drill 4.3) (layers *.Cu *.Mask) (tstamp 7be95409-ac94-4836-8e33-e19d71b67bd0))
)
