(footprint "MountingHole_2.5mm_Pad_Via" (version 20211014) (generator pcbnew)
  (layer "F.Cu")
  (tedit 56DDBAEA)
  (descr "Mounting Hole 2.5mm")
  (tags "mounting hole 2.5mm")
  (attr exclude_from_pos_files exclude_from_bom)
  (fp_text reference "REF**" (at 0 -3.5) (layer "F.SilkS")
    (effects (font (size 1 1) (thickness 0.15)))
    (tstamp a88cc8c4-0750-4c8e-8108-01211be22907)
  )
  (fp_text value "MountingHole_2.5mm_Pad_Via" (at 0 3.5) (layer "F.Fab")
    (effects (font (size 1 1) (thickness 0.15)))
    (tstamp 3e7d9a42-a551-4d94-8c46-cf5f661ea02a)
  )
  (fp_text user "${REFERENCE}" (at 0.3 0) (layer "F.Fab")
    (effects (font (size 1 1) (thickness 0.15)))
    (tstamp e181a6e5-47c2-4222-951c-0782c3c4bce4)
  )
  (fp_circle (center 0 0) (end 2.5 0) (layer "Cmts.User") (width 0.15) (fill none) (tstamp 928b9ae4-f2fe-470e-b5fc-ee093ac79290))
  (fp_circle (center 0 0) (end 2.75 0) (layer "F.CrtYd") (width 0.05) (fill none) (tstamp 5125006a-8f30-45fe-b8cf-be2c80f7177e))
  (pad "1" thru_hole circle (at 1.325825 1.325825) (size 0.8 0.8) (drill 0.5) (layers *.Cu *.Mask) (tstamp 07c4b85f-3249-4cf2-809d-50abded943b3))
  (pad "1" thru_hole circle (at 0 1.875) (size 0.8 0.8) (drill 0.5) (layers *.Cu *.Mask) (tstamp 5b19b84b-e866-463d-a956-e23529dc2299))
  (pad "1" thru_hole circle (at 1.325825 -1.325825) (size 0.8 0.8) (drill 0.5) (layers *.Cu *.Mask) (tstamp 634033a7-6b8d-4cbf-9adb-acd6b141ce33))
  (pad "1" thru_hole circle (at -1.325825 1.325825) (size 0.8 0.8) (drill 0.5) (layers *.Cu *.Mask) (tstamp 6f298e32-4b9e-4712-bc6d-3cee2b3883d1))
  (pad "1" thru_hole circle (at 0 0) (size 5 5) (drill 2.5) (layers *.Cu *.Mask) (tstamp a7b2f425-7e3c-47ea-ae2f-258ecade92b3))
  (pad "1" thru_hole circle (at -1.325825 -1.325825) (size 0.8 0.8) (drill 0.5) (layers *.Cu *.Mask) (tstamp a99b75ba-753c-4ff5-8d12-0462b3a2dc34))
  (pad "1" thru_hole circle (at 1.875 0) (size 0.8 0.8) (drill 0.5) (layers *.Cu *.Mask) (tstamp aed04438-162b-42b2-bdba-71af2acde5f6))
  (pad "1" thru_hole circle (at -1.875 0) (size 0.8 0.8) (drill 0.5) (layers *.Cu *.Mask) (tstamp c0595930-f2f4-4282-a569-cd1fc42b0bee))
  (pad "1" thru_hole circle (at 0 -1.875) (size 0.8 0.8) (drill 0.5) (layers *.Cu *.Mask) (tstamp eb4fb7f2-9363-4795-a350-3ff250605ae2))
)
