(footprint "MountingHole_3.7mm" (version 20211014) (generator pcbnew)
  (layer "F.Cu")
  (tedit 56D1B4CB)
  (descr "Mounting Hole 3.7mm, no annular")
  (tags "mounting hole 3.7mm no annular")
  (attr exclude_from_pos_files exclude_from_bom)
  (fp_text reference "REF**" (at 0 -4.7) (layer "F.SilkS")
    (effects (font (size 1 1) (thickness 0.15)))
    (tstamp 9388ba5c-bf9c-482e-a588-a3282b970cbc)
  )
  (fp_text value "MountingHole_3.7mm" (at 0 4.7) (layer "F.Fab")
    (effects (font (size 1 1) (thickness 0.15)))
    (tstamp 3e67fb09-d05d-4a75-8c8f-34df0ca23292)
  )
  (fp_text user "${REFERENCE}" (at 0.3 0) (layer "F.Fab")
    (effects (font (size 1 1) (thickness 0.15)))
    (tstamp f18ff858-eee1-4b8e-a603-a7d2f993dd36)
  )
  (fp_circle (center 0 0) (end 3.7 0) (layer "Cmts.User") (width 0.15) (fill none) (tstamp 712ff9c5-1323-4d40-b679-033c50e01272))
  (fp_circle (center 0 0) (end 3.95 0) (layer "F.CrtYd") (width 0.05) (fill none) (tstamp c4808104-bd75-4075-92e6-9cff3d498090))
  (pad "" np_thru_hole circle (at 0 0) (size 3.7 3.7) (drill 3.7) (layers *.Cu *.Mask) (tstamp bbd26024-657f-42f6-b98d-368b1b2204f8))
)
