(footprint "MountingHole_4.3mm_M4_DIN965" (version 20211014) (generator pcbnew)
  (layer "F.Cu")
  (tedit 56D1B4CB)
  (descr "Mounting Hole 4.3mm, no annular, M4, DIN965")
  (tags "mounting hole 4.3mm no annular m4 din965")
  (attr exclude_from_pos_files exclude_from_bom)
  (fp_text reference "REF**" (at 0 -4.75) (layer "F.SilkS")
    (effects (font (size 1 1) (thickness 0.15)))
    (tstamp 231a3d89-a7e1-4bc6-8d72-ae3c965364ec)
  )
  (fp_text value "MountingHole_4.3mm_M4_DIN965" (at 0 4.75) (layer "F.Fab")
    (effects (font (size 1 1) (thickness 0.15)))
    (tstamp ba9f738e-f20f-410f-ba36-fbf7a229bd53)
  )
  (fp_text user "${REFERENCE}" (at 0.3 0) (layer "F.Fab")
    (effects (font (size 1 1) (thickness 0.15)))
    (tstamp 9f486e8b-5939-43a7-915b-8c544ad9ffa7)
  )
  (fp_circle (center 0 0) (end 3.75 0) (layer "Cmts.User") (width 0.15) (fill none) (tstamp b1d561a3-e6be-4458-b57c-a9ccdc5b590f))
  (fp_circle (center 0 0) (end 4 0) (layer "F.CrtYd") (width 0.05) (fill none) (tstamp aa5f1ac1-3000-499b-9dbd-e461f248bf8d))
  (pad "" np_thru_hole circle (at 0 0) (size 4.3 4.3) (drill 4.3) (layers *.Cu *.Mask) (tstamp e6187236-2343-46ea-bc9d-5d6f1ebb0f60))
)
