(footprint "microSD_HC_Hirose_DM3BT-DSF-PEJS" (version 20211014) (generator pcbnew)
  (layer "F.Cu")
  (tedit 5A1DBFB5)
  (descr "Micro SD, SMD, reverse on-board, right-angle, push-pull (https://www.hirose.com/product/en/download_file/key_name/DM3BT-DSF-PEJS/category/Drawing%20(2D)/doc_file_id/44097/?file_category_id=6&item_id=06090029900&is_series=)")
  (tags "Micro SD")
  (attr smd)
  (fp_text reference "REF**" (at 0.425 -9.525) (layer "F.SilkS")
    (effects (font (size 1 1) (thickness 0.15)))
    (tstamp 20f53c8f-e6ce-426b-82dc-0362e8fed148)
  )
  (fp_text value "microSD_HC_Hirose_DM3BT-DSF-PEJS" (at 0.425 9.575) (layer "F.Fab")
    (effects (font (size 1 1) (thickness 0.15)))
    (tstamp 15b34a65-b7c1-47e3-9b4b-06eb898ed222)
  )
  (fp_text user "KEEPOUT" (at 6.85 -3.25 90) (layer "Cmts.User")
    (effects (font (size 0.5 0.5) (thickness 0.07)))
    (tstamp 5f47ddd8-9204-4cd1-9b02-b6b1b294551d)
  )
  (fp_text user "${REFERENCE}" (at 0.325 1.575) (layer "F.Fab")
    (effects (font (size 1 1) (thickness 0.1)))
    (tstamp 717789cb-33ff-49f4-995b-81d291d274c9)
  )
  (fp_line (start 6.985 -2.575) (end 6.985 2.125) (layer "F.SilkS") (width 0.12) (tstamp 00b5eba7-1050-476b-b28e-d50f0be78db8))
  (fp_line (start -2.665 8.275) (end -2.165 7.785) (layer "F.SilkS") (width 0.12) (tstamp 081c7856-5159-4dba-aff0-888a78e83868))
  (fp_line (start 6.475 -7.885) (end 6.985 -7.885) (layer "F.SilkS") (width 0.12) (tstamp 33fe8622-70ea-48e7-9e17-b87835821aaf))
  (fp_line (start 6.985 -7.885) (end 6.985 -4.275) (layer "F.SilkS") (width 0.12) (tstamp 454b90da-2088-4822-ac28-bbbb5939f276))
  (fp_line (start 5.865 7.335) (end 5.865 7.785) (layer "F.SilkS") (width 0.12) (tstamp 560cfd28-8fe6-4b5b-84c2-c9a42e00fc7f))
  (fp_line (start -6.985 -7.885) (end -6.985 6.175) (layer "F.SilkS") (width 0.12) (tstamp 7bf10cda-1db5-4653-802b-24fec2b05c49))
  (fp_line (start -3.375 -7.885) (end -3.925 -7.885) (layer "F.SilkS") (width 0.12) (tstamp a6a80979-d5ea-4d00-895a-3a59c93005cb))
  (fp_line (start -2.165 7.335) (end -2.165 7.785) (layer "F.SilkS") (width 0.12) (tstamp ab6e86e9-1432-428a-a41c-fd6d6004009f))
  (fp_line (start -6.985 -7.885) (end -5.425 -7.885) (layer "F.SilkS") (width 0.12) (tstamp c0b6c73a-1240-40c9-affa-b36a1227c547))
  (fp_line (start -5.075 8.285) (end -2.675 8.285) (layer "F.SilkS") (width 0.12) (tstamp c5fe3e37-a68e-47a0-a767-3d9ed930508e))
  (fp_line (start 6.985 3.425) (end 6.985 4.525) (layer "F.SilkS") (width 0.12) (tstamp eb19d611-1529-4ddd-adcd-662a77492678))
  (fp_line (start 5.865 7.335) (end -2.165 7.335) (layer "F.SilkS") (width 0.12) (tstamp f2c65cc4-6287-4092-a03b-697ee25dfb97))
  (fp_line (start 7.225 0.775) (end 6.475 0.425) (layer "Dwgs.User") (width 0.1) (tstamp 01b57807-c638-449e-80ea-cacaddce19d0))
  (fp_line (start 7.225 -4.375) (end 6.475 -4.725) (layer "Dwgs.User") (width 0.1) (tstamp 02407639-8383-46ec-b4a6-01a6e73fa464))
  (fp_line (start 7.225 0.775) (end 7.225 -7.275) (layer "Dwgs.User") (width 0.1) (tstamp 1f63e1bf-0c63-4253-8562-f1edd734d802))
  (fp_line (start 7.225 0.125) (end 6.475 -0.175) (layer "Dwgs.User") (width 0.1) (tstamp 36831ff1-63f2-4c63-a02e-ffb40641d383))
  (fp_line (start 7.225 -5.775) (end 6.475 -6.125) (layer "Dwgs.User") (width 0.1) (tstamp 3e1e7800-2ea2-4e15-a554-78c1b1f963fc))
  (fp_line (start 6.475 -6.125) (end 7.225 -6.475) (layer "Dwgs.User") (width 0.1) (tstamp 5c8de658-0955-45ff-988e-93b84fd4b797))
  (fp_line (start 7.225 -5.075) (end 6.475 -5.425) (layer "Dwgs.User") (width 0.1) (tstamp 607f6b89-bd3f-470e-8fb7-61c840ff7562))
  (fp_line (start 6.475 -3.325) (end 7.225 -3.675) (layer "Dwgs.User") (width 0.1) (tstamp 64d5f8ec-ed57-4638-bf9d-8b792c1cb1b7))
  (fp_line (start 6.475 -5.425) (end 7.225 -5.775) (layer "Dwgs.User") (width 0.1) (tstamp 6a1ae083-af93-4a55-b476-accb89aaf14e))
  (fp_line (start 6.475 0.425) (end 7.225 0.125) (layer "Dwgs.User") (width 0.1) (tstamp 6f9382d7-1943-4fed-a088-81c78c3a3565))
  (fp_line (start 6.475 -4.725) (end 7.225 -5.075) (layer "Dwgs.User") (width 0.1) (tstamp 760a3287-cbac-40e4-9060-565cb570160e))
  (fp_line (start 6.475 0.775) (end 6.475 -7.275) (layer "Dwgs.User") (width 0.1) (tstamp 78264aa4-9576-47b0-aa34-34f625bf0844))
  (fp_line (start 6.475 -0.825) (end 7.225 -1.125) (layer "Dwgs.User") (width 0.1) (tstamp 7b1b9162-8291-47ca-9777-bfcabeb39e18))
  (fp_line (start 7.225 -6.475) (end 6.475 -6.825) (layer "Dwgs.User") (width 0.1) (tstamp a4e65cf6-ad97-4b53-9b47-d7f0768b5b03))
  (fp_line (start 7.225 -3.675) (end 6.475 -4.025) (layer "Dwgs.User") (width 0.1) (tstamp adca9c1a-cbc7-43a2-a167-957a1678bddb))
  (fp_line (start 7.225 -2.975) (end 6.475 -3.325) (layer "Dwgs.User") (width 0.1) (tstamp b8348cc1-d442-4234-b955-06ba2754e418))
  (fp_line (start 7.225 -2.375) (end 6.475 -2.725) (layer "Dwgs.User") (width 0.1) (tstamp bddcf9f8-dae5-4eaa-9b4f-0bb811f4fcc9))
  (fp_line (start 7.225 -1.125) (end 6.475 -1.425) (layer "Dwgs.User") (width 0.1) (tstamp c9e387d8-5010-4a68-89c7-ee7d41e8467b))
  (fp_line (start 6.475 -2.725) (end 7.225 -2.975) (layer "Dwgs.User") (width 0.1) (tstamp cd10bea1-04aa-4aa9-bccd-74fd1fe91deb))
  (fp_line (start 7.225 -0.475) (end 6.475 -0.825) (layer "Dwgs.User") (width 0.1) (tstamp cf87bb35-e576-40fa-a215-f1af9d971979))
  (fp_line (start 6.475 -4.025) (end 7.225 -4.375) (layer "Dwgs.User") (width 0.1) (tstamp d2feab78-b504-4025-97da-fec854266451))
  (fp_line (start 7.225 0.775) (end 6.475 0.775) (layer "Dwgs.User") (width 0.1) (tstamp d58d4cf9-63eb-4ad7-88ea-9ecaf31c5a3d))
  (fp_line (start 7.225 -1.775) (end 6.475 -2.125) (layer "Dwgs.User") (width 0.1) (tstamp d6f7eff3-e037-4eae-aeb3-7d3d045e5738))
  (fp_line (start 6.475 -0.175) (end 7.225 -0.475) (layer "Dwgs.User") (width 0.1) (tstamp de3a48a4-50a7-464f-9150-cd46ed887308))
  (fp_line (start 6.475 -2.125) (end 7.225 -2.375) (layer "Dwgs.User") (width 0.1) (tstamp e4ae10c3-a975-4594-9257-ce89ba5e92b2))
  (fp_line (start 6.475 -6.825) (end 7.225 -7.175) (layer "Dwgs.User") (width 0.1) (tstamp ecc09f7e-f1f2-41e4-9557-4d7edc9fcf60))
  (fp_line (start 6.475 -1.425) (end 7.225 -1.775) (layer "Dwgs.User") (width 0.1) (tstamp efd6ddb8-6f84-4ddf-9f32-75e808503dcb))
  (fp_line (start 7.225 -7.275) (end 6.475 -7.275) (layer "Dwgs.User") (width 0.1) (tstamp f52e4f51-a249-48d1-91e6-9ba878482cd4))
  (fp_line (start -7.88 8.88) (end -7.88 -8.82) (layer "F.CrtYd") (width 0.05) (tstamp 549d5daa-6385-46be-aead-3eda9af15fef))
  (fp_line (start -7.88 -8.82) (end 7.82 -8.82) (layer "F.CrtYd") (width 0.05) (tstamp 660a62fc-e3d2-404b-89cd-5f88d5171075))
  (fp_line (start 7.82 -8.82) (end 7.82 8.88) (layer "F.CrtYd") (width 0.05) (tstamp 6b0cceb1-cccf-447d-aa81-9c4a42e6805f))
  (fp_line (start 7.82 8.88) (end -7.88 8.88) (layer "F.CrtYd") (width 0.05) (tstamp 9a6663b2-cf05-41bc-9ef4-c528f119b8e9))
  (fp_line (start -6.925 8.225) (end -6.925 -7.825) (layer "F.Fab") (width 0.1) (tstamp 44f9e57b-261b-4bbe-b798-e8b9d244a146))
  (fp_line (start 6.925 7.725) (end 6.925 -7.825) (layer "F.Fab") (width 0.1) (tstamp 5a9a566e-7f1e-4795-836b-bf40098dc81b))
  (fp_line (start -2.225 7.275) (end -2.225 7.725) (layer "F.Fab") (width 0.1) (tstamp 64c330e2-613d-4efc-a0b9-e2765ab96f39))
  (fp_line (start -6.925 8.225) (end -2.725 8.225) (layer "F.Fab") (width 0.1) (tstamp 69cde0a3-85d0-47f6-a8dd-cd1126876a22))
  (fp_line (start 5.925 13.225) (end 5.925 7.275) (layer "F.Fab") (width 0.1) (tstamp 6c275240-f668-4026-aff2-7784215191ad))
  (fp_line (start -5.075 8.225) (end -5.075 13.225) (layer "F.Fab") (width 0.1) (tstamp 7d609c4a-c145-4b55-b365-42a237b3b048))
  (fp_line (start -4.575 13.725) (end 5.425 13.725) (layer "F.Fab") (width 0.1) (tstamp 8b21eb40-ca39-4d88-b423-ef2fb092c163))
  (fp_line (start -2.225 7.275) (end 5.925 7.275) (layer "F.Fab") (width 0.1) (tstamp b9a67835-3aaa-4b4d-9926-9ef81aeee518))
  (fp_line (start 6.925 7.725) (end 5.925 7.725) (layer "F.Fab") (width 0.1) (tstamp d2e2c14f-a70c-4661-96d3-7f638ad2dd90))
  (fp_line (start -2.225 7.725) (end -2.725 8.225) (layer "F.Fab") (width 0.1) (tstamp e3228171-9800-4aba-9f66-c15df7c2cb6e))
  (fp_line (start -4.575 9.725) (end 5.425 9.725) (layer "F.Fab") (width 0.1) (tstamp e380e4a2-3197-46a4-a6d8-29ea3bb121c5))
  (fp_line (start -6.925 -7.825) (end 6.925 -7.825) (layer "F.Fab") (width 0.1) (tstamp ff203c99-b940-4e5a-933e-683f129bc43b))
  (fp_arc (start 5.925 13.225) (mid 5.778553 13.578553) (end 5.425 13.725) (layer "F.Fab") (width 0.1) (tstamp 03c5d1cf-a99a-42f7-8132-f6b89356076f))
  (fp_arc (start -4.575 13.725) (mid -4.928553 13.578553) (end -5.075 13.225) (layer "F.Fab") (width 0.1) (tstamp 20c1d59c-3ba5-4770-b927-2f01f486619f))
  (fp_arc (start 5.925 9.225) (mid 5.778553 9.578553) (end 5.425 9.725) (layer "F.Fab") (width 0.1) (tstamp 273023be-bfbb-4f78-9819-7f62aa6067ef))
  (fp_arc (start -4.575 9.725) (mid -4.928553 9.578553) (end -5.075 9.225) (layer "F.Fab") (width 0.1) (tstamp 9ce58193-042b-43f0-b9e8-a3ec8477cf74))
  (pad "1" smd rect (at -2.775 -7.625) (size 0.7 1.4) (layers "F.Cu" "F.Paste" "F.Mask") (tstamp f85e3a9a-332d-4fdb-8e1e-a778cf4e3e55))
  (pad "2" smd rect (at -1.675 -7.625) (size 0.7 1.4) (layers "F.Cu" "F.Paste" "F.Mask") (tstamp 4307fddc-f89c-43aa-80ca-e2be36e82bd4))
  (pad "3" smd rect (at -0.575 -7.625) (size 0.7 1.4) (layers "F.Cu" "F.Paste" "F.Mask") (tstamp 70f261e3-20d9-457a-9b2d-176c06f7dffc))
  (pad "4" smd rect (at 0.525 -7.625) (size 0.7 1.4) (layers "F.Cu" "F.Paste" "F.Mask") (tstamp 9e074747-9466-4ad6-a45a-93d341a4d142))
  (pad "5" smd rect (at 1.625 -7.625) (size 0.7 1.4) (layers "F.Cu" "F.Paste" "F.Mask") (tstamp ce5e1073-4dc9-4634-967f-01c1e4c2ba6b))
  (pad "6" smd rect (at 2.725 -7.625) (size 0.7 1.4) (layers "F.Cu" "F.Paste" "F.Mask") (tstamp 26429b4d-ef74-4474-be0b-241b7a545c71))
  (pad "7" smd rect (at 3.825 -7.625) (size 0.7 1.4) (layers "F.Cu" "F.Paste" "F.Mask") (tstamp e37afc84-6e68-47c9-b386-b674d3528c50))
  (pad "8" smd rect (at 4.925 -7.625) (size 0.7 1.4) (layers "F.Cu" "F.Paste" "F.Mask") (tstamp a12b597c-4465-47f2-92d6-bb19e8b6e6d4))
  (pad "9" smd rect (at 5.875 -7.725) (size 0.7 1.2) (layers "F.Cu" "F.Paste" "F.Mask") (tstamp 4dd996f9-bcf0-481f-a709-80a87529f47f))
  (pad "10" smd rect (at 6.725 2.775) (size 1.2 0.8) (layers "F.Cu" "F.Paste" "F.Mask") (tstamp 11dcc2c4-ab2d-427c-a5e2-6a4404b25cd5))
  (pad "11" smd rect (at -5.825 7.825 45) (size 0.2 0.2) (layers "F.Cu" "F.Paste" "F.Mask") (tstamp 04d7d5cc-de27-4ede-a276-73151125af4d))
  (pad "11" smd rect (at 6.725 6.375) (size 1.2 3.2) (layers "F.Cu" "F.Paste" "F.Mask") (tstamp 2e206355-0d12-45b2-88b5-2ab385907a84))
  (pad "11" smd rect (at 6.725 -3.425) (size 1.2 1.2) (layers "F.Cu" "F.Paste" "F.Mask") (tstamp 3d206f27-38dc-4a50-95b5-1582dca7d27a))
  (pad "11" smd rect (at -6.575 7.375) (size 1.5 1.9) (layers "F.Cu" "F.Paste" "F.Mask") (tstamp 985046ec-657b-4f1c-99ae-774dfd82821d))
  (pad "11" smd rect (at -4.675 -7.625) (size 1 1.4) (layers "F.Cu" "F.Paste" "F.Mask") (tstamp b511126a-32ce-47e8-8b28-e7b1fcdab590))
  (pad "11" smd rect (at -5.575 8.075) (size 0.5 0.5) (layers "F.Cu" "F.Paste" "F.Mask") (tstamp c9ebaf5a-be09-4f4c-9d02-21159d825262))
  (model "${KICAD6_3DMODEL_DIR}/Connector_Card.3dshapes/microSD_HC_Hirose_DM3BT-DSF-PEJS.wrl"
    (offset (xyz 0 0 0))
    (scale (xyz 1 1 1))
    (rotate (xyz 0 0 0))
  )
)
